{
    "mods": [
        {
            "name": "base",
            "enabled": "true"
        },
        {
            "name": "EvoGUI",
            "enabled": "true"
        },
        {
            "name": "FARL",
            "enabled": "true"
        },
        {
            "name": "Gloom",
            "enabled": "true"
        },
        {
            "name": "Landfill",
            "enabled": "true"
        },
        {
            "name": "Natural_Evolution_Enemies",
            "enabled": "true"
        },
        {
            "name": "Natural_Evolution_Expansion",
            "enabled": "true"
        },
        {
            "name": "Oxygen",
            "enabled": "false"
        },
        {
            "name": "rso-mod",
            "enabled": "true"
        },
        {
            "name": "ScienceCostTweaker",
            "enabled": "true"
        },
        {
            "name": "STRS",
            "enabled": "true"
        },
        {
            "name": "UraniumPower",
            "enabled": "true"
        }
    ]
}
